{
  "spider": "./pg.jar",
   "wallpaper": "https://mirror.ghproxy.com/https://raw.githubusercontent.com/leotvgo/duo/main//Biz/3.jpeg","warningText": "雷欧提示:
接口软件永远免费 
长期维护切勿贩卖",

 "sites": [
    {
      "key": "豆瓣",
      "name": "雷欧祝大家龙年大吉",
      "type": 3,
      "playerType": 1,
      "api": "csp_Douban",
      "searchable": 0,
      "changeable": 1,
      "indexs": 1,
      "ext": "./lib/douban.json"
    },
    {
	"key": "网盘配置",
	"name": "PG网盘配置",
	"type": 3,
	"api": "csp_Config",
	"searchable": 0,
	"changeable": 0,
	"ext":"./lib/tokenm.json"
    },
    {
      "key": "csp_KungFu404",
      "name": "云盘登录配置",
      "type": 3,
      "api": "csp_KungFu404",
      "searchable": 0,
      "filterable": 0,
      "changeable": 0,
      "jar": "./Token.jar",
      "ext": "http://127.0.0.1:9978/file/TVBox/token.txt"
    },
   {
      "key":"Local",
      "name":"LEO｜本地",
      "type":3,
      "api":"csp_Local"},
    {
      "key":"PushShare",
      "name":"LEO｜资源分享",
      "type":3, 
      "api":"csp_PushShare",
      "searchable":1,
      "quickSearch":1, 
      "changeable":1, 
      "filterable":0, 
      "timeout":60, 
      "ext":"./lib/tokenm.json$$$./lib/pushshare.txt$$$db$$$1",
			"style": {
				"type": "list",
				"ratio": 1.1
			}
		},
    {
      "key":"AliShare",
      "name":"LEO｜阿里分享",
      "type":3,
      "api":"csp_AliShare",
      "searchable":1,
      "quickSearch":1, 
      "changeable":1, 
      "filterable":0, 
      "timeout":60, 
      "ext":"./lib/tokenm.json$$$./lib/alishare.txt$$$db$$$1",
			"style": {
				"type": "list",
				"ratio": 1.1
			}
		},
    {
      "key":"QuarkShare",
      "name":"LEO｜夸克分享",
      "type":3,
      "api":"csp_QuarkShare",
      "searchable":0,
      "quickSearch":0, 
      "changeable":0, 
      "filterable":0, 
      "timeout":60, 
      "ext":"./lib/tokenm.json$$$./lib/quarkshare.txt",
			"style": {
				"type": "list",
				"ratio": 1.1
			}
		},
    {
      "key":"ThunderShare",
      "name":"LEO｜迅雷分享",
      "type":3,
      "api":"csp_ThunderShare",
      "searchable":0,
      "quickSearch":0, 
      "changeable":0, 
      "filterable":0, 
      "timeout":60, 
      "ext":"./lib/tokenm.json$$$./lib/thundershare.txt",
	"style": {
		"type": "list",
		"ratio": 1.1
		}
    },
   {
       "key": "酷看",
       "name": "LEO┃秒播",
       "type": 3,
       "api": "csp_Kkys",
       "timeout": 15,
       "searchable": 1,
       "quickSearch": 1,
       "changeable": 1,
       "jar": "https://fs-im-kefu.7moor-fs1.com/ly/4d2c3f00-7d4c-11e5-af15-41bf63ae4ea0/1711305426162/fan.txt;md5;602fb3226d777850053484cdeb2f3296"
    },
    {
	"key": "NanGua",
	"name": "LEO|南瓜",
	"type": 3,
	"api": "csp_NanGua",
	"searchable": 1,
	"changeable": 1,
	"ext": "null$$$1"
		},
   {
	"key":"bili",
	"name":"LEO |B站",
	"type":3,
	"api": "csp_Bili",
	"searchable": 1,
	"quickSearch": 0,
	"changeable": 0,
	"ext":{
	"type":"演唱会#电影#电视剧#帕梅拉#广场舞#纪录片#综艺#鬼畜#音乐#舞蹈#影视#知识#美食#风光#田园#户外#8K#徐云",
	"cookie":""
		}
   },
   {
      "key":"️玩偶哥",
      "name":"LEO｜玩偶哥",
      "type":3,
      "api":"csp_XYQHikerAL",
      "searchable":1,
      "quickSearch":1,
      "filterable":1,
      "jar": "./spider.jar",
      "ext":"./json/wog.json"},
    {
      "key":"️玩偶弟",
      "name":"LEO｜玩偶弟",
      "type":3,
      "api":"csp_XYQHikerAL",
      "searchable":1,
      "quickSearch":1,
      "filterable":1,
      "jar": "./spider.jar",
      "ext":"./json/wod.json"},
    {
      "key":"️玩偶姐",
      "name":"LEO｜玩偶姐",
      "type":3,
      "api":"csp_XYQHikerAL",
      "searchable":1,
      "quickSearch":1,
      "filterable":1,
      "jar": "./spider.jar",
      "ext":"./json/woj.json"},
    {
      "key":"️玩偶妹",
      "name":"LEO｜玩偶妹",
      "type":3,
      "api":"csp_XYQHikerAL",
      "searchable":1,
      "quickSearch":1,
      "filterable":1,
      "jar": "./spider.jar",
      "ext":"./json/wom.json"},
    {
      "key":"️玩偶歌",
      "name":"LEO｜玩偶OU",
      "type":3,
      "api":"csp_XYQHikerAL",
      "searchable":1,
      "quickSearch":1,
      "filterable":1,
      "jar": "./spider.jar",
      "ext":"./json/wou.json"},
    {
          "key":"玩偶弹幕",
	  "name":"LEO｜玩偶DM",
	  "type":3,
	  "api":"csp_Wogg",
	  "searchable":1,
	  "quickSearch":1,
	  "filterable":1,
	  "ext":{"token":"http://127.0.0.1:9978/file/TVBox/token.txt",
		  "site":"https://www.wogg.xyz","danmu":true},
	  "jar":"./danmu.jar;md5;158912c940bc4c3fa877dec5d163d3af"},
    {
      "key":"csp_appys_影盒",
      "name":"LEO｜影探主",
      "type":3,
      "api":"csp_AppYsV2",
      "searchable": 1,
      "quickSearch":1,
      "changeable":1,
      "filterable":1,
      "jar":"http://ythz.lyyytv.cn/uploads/tvbox/yt.jar",
      "ext": "http://vipcms.lyyytv.cn/api.php/app/"},
    {
      "key":"88Pan",
      "name":"LEO｜88网盘",
      "type":3,
      "api":"csp_EightEight",
      "timeout":60, 
      "ext":"./lib/tokenm.json$$$https://662688.xyz$$$",
	"style": {
		"type": "list",
		"ratio": 1.1
	}
     },
    {
       "key":"盘搜",
       "name":"LEO|盘搜",
       "type":3,
       "api":"csp_PanSou",
       "timeout":30,
       "ext":"./lib/tokenm.json"},
    {
	"key":"混合盘",
	"name":"LEO|混合盘",
	"type":3,
	"api":"csp_HunHePan",
	"timeout":60, 
	"ext":"./lib/tokenm.json",
	   "style": {
			"type": "list",
			"ratio": 1.1
	}
     },
    {
	"key":"秒搜",
	"name":"LEO|秒搜",
	"type":3,
	"api":"csp_MiaoSou",
	"timeout":60, 
	"ext":"./lib/tokenm.json",
		"style": {
			"type": "list",
			"ratio": 1.1
		}
	},
   { 
	"key":"校长影视",
        "name":"LEO|校长",
        "type":3,
        "api":"csp_XiaoZhang", 
        "quickSearch":1, 
        "changeable":1, 
        "filterable":1, 
        "timeout":60,
        "ext":"./lib/tokenm.json$$$https://xzyshd.com$$$null$$$1"},
    {
	"key":"云云弹幕",
	"name":"LEO｜云云DM",
	"type":3,
        "api":"csp_Upys",
        "searchable":1,
	"filterable":0,
	"changeable":1,
	"ext":{"token":"http://127.0.0.1:9978/file/TVBox/token.txt","danmu":true},
	"jar":"./danmu.jar;md5;158912c940bc4c3fa877dec5d163d3af"},
   {
      "key":"Wogg",
      "name":"LEO|玩偶哥哥",
      "type":3,
      "api":"csp_Wogg",
      "quickSearch":1, 
      "changeable":1, 
      "filterable":1, 
      "timeout":60, 
      "ext":"./lib/tokenm.json$$$https://wogg.link/$$$proxy$$$1$$$./lib/wogg.json"},
		{
      "key":"Wobg",
      "name":"LEO|玩偶表哥",
      "type":3,
      "api":"csp_Wobg",
      "quickSearch":1, 
      "changeable":1, 
      "filterable":1, 
      "timeout":60, 
      "ext":"./lib/tokenm.json$$$https://wobge.run.goorm.io$$$proxy$$$1$$$./lib/wogg.json"},
   {
      "key":"yydsys",
      "name":"LEO|玩你老哥",
      "type":3,
      "api":"csp_Wobg",
      "quickSearch":1, 
      "changeable":1, 
      "filterable":1, 
      "timeout":60, 
      "ext":"./lib/tokenm.json$$$https://tv.yydsys.top/$$$proxy$$$1$$$./lib/wogg.json"},
   {
      "key":"Xinshijue",
      "name":"LEO|新视觉",
      "type":3,
      "api":"csp_Xinshijue",
      "quickSearch":1, 
      "changeable":1, 
      "filterable":1, 
      "timeout":60, 
      "ext":"./lib/tokenm.json$$$https://www.80yy3.com/$$$proxy$$$1$$$./lib/wogg.json"},
   {
        "key":"ddys",
	"name":"LEO|低端",
	"type":3,
	"api":"csp_Ddys",
	"quickSearch":1, 
	"changeable":1, 
	"filterable":1, 
	"timeout":60, 
	"ext":"./lib/tokenm.json$$$https://ddys.pro/$$$proxy$$$1$$$"},
    {
        "key":"团长资源",
        "name":"LEO|团长",
        "type":3,
        "api":"csp_TZFile", 
        "quickSearch":1, 
        "changeable":1, 
        "filterable":1, 
        "timeout":60,
        "ext":"./lib/tokenm.json$$$proxy$$$1"},
   {
	"key":"搜索弹幕",
	"name":"LEO｜搜索DM",
	"type":3,
	"api":"csp_PanSearch",
	"searchable":1,
	"filterable":0,
	"changeable":1,
	"ext":{"token":"http://127.0.0.1:9978/file/TVBox/token.txt","danmu":true},
	"jar":"./danmu.jar;md5;158912c940bc4c3fa877dec5d163d3af"},
   {
      "key":"Dovx", 
      "name": "LEO|Dovx", 
      "type": 3, 
      "api": "csp_Dovx", 
      "searchable": 1, 
      "quickSearch": 1, 
      "filterable": 0, 
      "timeout":30, 
      "ext":"./lib/tokenm.json" },  
   {
      "key": "Zhaozy",
      "name": "LEO｜找资源",
      "type": 3,
      "api": "csp_Zhaozy",
      "searchable": 1,
      "quickSearch": 1,
      "filterable": 0,
      "jar": "./spider.jar",
      "ext": "{\"username\":\"Pizazz\",\"password\":\"xiaosage\",\"searchurl\":\"http://zhaoziyuan.pw/so?filename={wd}\"}"
    },
   {
     "key":"易搜",
     "name":"LEO|易搜",
     "type":3,
     "api":"csp_YiSo",
     "timeout":60, 
     "ext":"./lib/tokenm.json$$$./lib/yiso.txt",
			"style": {
				"type": "list",
				"ratio": 1.1
			}
		},
    {
	   "key":"七夜弹幕",
	  "name":"LEO｜七夜DM",
	  "type":3,
	  "api":"csp_Dovx",
	  "searchable":1,
	  "filterable":0,
	  "changeable":1,
	  "ext":{"token":"http://127.0.0.1:9978/file/TVBox/token.txt","danmu":true},
	  "jar":"./danmu.jar;md5;158912c940bc4c3fa877dec5d163d3af"},
    {
	    "key":"云搜弹幕",
	    "name":"LEO｜云搜DM",
	    "type":3,
	    "api":"csp_UpYun",
	    "searchable":1,
	    "filterable":0,
	    "changeable":1,
	    "ext":{"token":"http://127.0.0.1:9978/file/TVBox/token.txt","danmu":true},
	    "jar":"./danmu.jar;md5;158912c940bc4c3fa877dec5d163d3af"},
   {
	   "key":"盘搜弹幕",
	   "name":"LEO｜盘搜DM",
	   "type":3,"api":
	   "csp_PanSou",
	   "searchable":1,
	   "filterable":0,
	   "changeable":1,
	   "ext":{"token":"http://127.0.0.1:9978/file/TVBox/token.txt","danmu":true},
	   "jar":"./danmu.jar;md5;158912c940bc4c3fa877dec5d163d3af"},
    {
	    "key":"易搜弹幕",
	    "name":"LEO｜易搜DM",
	    "type":3,
	    "api":"csp_YiSo",
	    "searchable":1,
	    "filterable":0,
	    "changeable":1,
	    "ext":{"token":"http://127.0.0.1:9978/file/TVBox/token.txt","danmu":true,"cookie":"satoken=5f91a828-2198-4630-ac41-da5a217c01d7"},
	    "jar":"./danmu.jar;md5;158912c940bc4c3fa877dec5d163d3af"},
    {
	    "key":"云盘弹幕",
	    "name":"LEO｜云盘DM",
	    "type":3,
	    "api":"csp_Yunpan4k",
	    "searchable":1,
	    "filterable":0,
	    "changeable":1,
	    "ext":{"token":"http://127.0.0.1:9978/file/TVBox/token.txt","danmu":true},
	    "jar":"./danmu.jar;md5;158912c940bc4c3fa877dec5d163d3af"},
    {
	    "key":"小纸条弹幕",
	    "name":"LEO｜小纸条DM",
	    "type":3,
	    "api":"csp_XiaoZhiTiao",
	    "searchable":1,
	    "filterable":1,
	    "changeable":1,
	    "ext":{"token":"http://127.0.0.1:9978/file/TVBox/token.txt","danmu":true},
	    "jar":"./danmu.jar;md5;158912c940bc4c3fa877dec5d163d3af"},
  {
	  "key":"多多影音",
	  "name":"LEO｜多多",
	  "type":3,
	  "api":"csp_XYQHikerAL",
	  "searchable":1,
	  "quickSearch":1,
	  "filterable":1,
	  "jar": "./spider.jar",
	  "ext":"./json/多多影音.json"},
    {
      "key": "我的小站",
      "name": "LEO｜小站",
      "type": 3,
      "api": "csp_XYQHikerAL",
      "searchable": 1,
      "quickSearch": 1,
      "filterable": 1,
      "jar": "./spider.jar",
      "ext": "./json/我的小站.json"
    },
    {
      "key": "阿里苏苏",
      "name": "LEO｜苏苏",
      "type": 3,
      "api": "csp_XYQHikerAL",
      "searchable": 1,
      "quickSearch": 1,
      "filterable": 1,
      "jar": "./spider.jar",
      "ext": "./json/阿里苏苏.json"
    },
    {
      "key": "云盘论坛",
      "name": "LEO｜论坛",
      "type": 3,
      "api": "csp_XYQHikerAL",
      "searchable": 1,
      "quickSearch": 1,
      "filterable": 1,
      "jar": "./spider.jar",
      "ext": "./json/云盘论坛.json"
    },
    {
      "key": "云盘资源",
      "name": "LEO｜资源",
      "type": 3,
      "api": "csp_XYQHikerAL",
      "searchable": 1,
      "quickSearch": 1,
      "filterable": 1,
      "jar": "./spider.jar",
      "ext": "./json/云盘资源.json"
    },
    {
      "key": "云盘资源分享",
      "name": "LEO｜分享",
      "type": 3,
      "api": "csp_XYQHikerAL",
      "searchable": 1,
      "quickSearch": 1,
      "filterable": 1,
      "jar": "./spider.jar",
      "ext": "./json/云盘资源分享.json"
    },
    {
      "key": "土拨鼠搜索",
      "name": "LEO｜土拨鼠",
      "type": 3,
      "api": "csp_XYQHiker",
      "searchable": 1,
      "quickSearch": 1,
      "filterable": 1,
      "jar": "./spider.jar",
      "ext": "./json/土拨鼠搜索.json"
    },
    {
      "key": "豆豆飞搜索",
      "name": "LEO｜豆豆飞",
      "type": 3,
      "api": "csp_XYQHikerAL",
      "searchable": 1,
      "quickSearch": 1,
      "filterable": 1,
      "jar": "./spider.jar",
      "ext": "./json/豆豆飞搜索.json"
    },
   {
      "key":"Funletu",
      "name":"LEO|趣盘搜",
      "type":3,
      "api":"csp_Funletu",
      "quickSearch":1, 
      "changeable":1, 
      "filterable":1, 
      "timeout":60, 
      "ext":"./lib/tokenm.json",
			"style": {
				"type": "list",
				"ratio": 1.1
			}
		},
   {
     "key":"QuarkPanso",
     "name":"LEO|夸克盘搜",
     "type":3,
     "api":"csp_QuarkPanso",
     "quickSearch":1, 
     "changeable":1, 
     "filterable":1, 
     "timeout":60, 
     "ext":"./lib/tokenm.json",
			"style": {
				"type": "list",
				"ratio": 1.1
			}
		},
   {
     "key":"DaPanSo",
     "name":"LEO|大盘搜",
     "type":3,
     "api":"csp_DaPanSo",
     "quickSearch":1, 
     "changeable":1, 
     "filterable":1, 
     "timeout":60, 
     "ext":"./lib/tokenm.json$$$https://dapanso.com$$$proxy$$$1"},
  {
     "key":"drpy_js_愛盤搜",
     "name":"爱盘搜[js]|夸",
     "type":3,
     "api":"./lib/drpy2.min.js",
     "ext":"./js/aipanso.js", 
     "quickSearch":1,
     "changeable":1, 
     "timeout":60,
       "style": {
	"type": "list",
	"ratio": 1.1
		}
	},
  {
      "key":"PikaSo",
      "name":"LEO|皮卡搜",
      "type":3,
      "api":"csp_PikaSo",
      "quickSearch":1, 
      "changeable":1, 
      "filterable":1, 
      "timeout":60, 
      "ext":"./lib/tokenm.json$$$https://www.pikaso.top/$$$null",
			"style": {
				"type": "list",
				"ratio": 1.1
			}
		},
   {
      "key":"Qianfan",
      "name":"LEO|千帆",
      "type":3,
      "api":"csp_Qianfan",
      "quickSearch":1, 
      "changeable":1, 
      "filterable":1, 
      "timeout":60, 
      "ext":"./lib/tokenm.json$$$https://pan.qianfan.app$$$null$$$./lib/qianfan.txt$$$1"},
   {
      "key":"YunSo",
      "name":"LEO|云SOU",
      "type":3,
      "api":"csp_YunSo",
      "quickSearch":1, 
      "changeable":1,
      "filterable":1, 
      "timeout":60, 
      "ext":"./lib/tokenm.json$$$https://www.yunso.net$$$null$$$1",
	  "style": {
		   "type": "list",
		   "ratio": 1.1
	 }
    },
   {
      "key":"YunPanOne",
      "name":"LEO|云PAN",
      "type":3,
      "api":"csp_YunPanOne",
      "quickSearch":1, 
      "changeable":1, 
      "filterable":1, 
      "timeout":60, 
      "ext":"./lib/tokenm.json$$$null$$$proxy$$$1"},
  {
      "key":"Pan99",
      "name":"LEO|盘99",
      "type":3,
      "api":"csp_Pan99",
      "quickSearch":1, 
      "changeable":1, 
      "filterable":1, 
      "timeout":60, 
      "ext":"./lib/tokenm.json$$$https://pan99.xyz$$$null$$$1"},
   {
     "key":"盘友圈",
     "name":"LEO|盘友",
     "type":3,
     "api":"csp_Panyq",
     "timeout":60, 
     "ext":"./lib/tokenm.json$$$site$$$proxy"},
   {
      "key":"YingSo",
      "name":"LEO|影搜",
      "type":3,
      "api":"csp_YingSo",
      "timeout":60, 
      "ext":"./lib/tokenm.json"},
   {
     "key":"Hdhive",
     "name":"LEO|影巢",
     "type":3,
     "api":"csp_Hdhive",
     "quickSearch":1, 
     "changeable":1, 
     "filterable":1, 
     "timeout":60, 
     "ext":"./lib/tokenm.json$$$proxy$$$1"},
  {
      "key":"Ppxzy",
      "name":"LEO|皮皮虾",
      "type":3,
      "api":"csp_Ppxzy", 
      "quickSearch":1, 
      "changeable":1, 
      "filterable":1, 
      "timeout":60, 
      "ext":"./lib/tokenm.json$$$https://ppxzy.net$$$proxy$$$1"},
   {
     "key":"Bt0",
     "name":"LEO|不太灵",
     "type":3,
     "api":"csp_Bt0",
     "quickSearch":1, 
     "changeable":1, 
     "filterable":1, 
     "timeout":60, 
     "ext":"null$$$null$$$1"},
    {
      "key": "xyyy",
      "name": "LEO|音乐",
      "type": 4,
      "api": "https://catbox.n13.club/wy.php"},
    {
      "key": "Iktv",
      "name": "LEO|KTV音乐",
      "type": 3,
      "api": "csp_Iktv",
      "searchable": 1,
      "changeable": 0
    },
    {
      "key": "Yinyuetai",
      "name": "LEO|音乐台",
      "type": 3,
      "api": "csp_Yinyuetai",
      "searchable": 1,
      "changeable": 0
      },
    {
      "key": "Pandalivetv",
      "name": "LEO┃韩国直播",
      "type": 3,
      "api": "csp_WexPandalivetv",
      "searchable": 0,
      "changeable": 0,
      "jar": "https://mirror.ghproxy.com/https://raw.githubusercontent.com/leotvgo/duo/main/wex.txt"
    },
    {
      "key": "学堂",
      "name": "LEO学堂教育",
      "type": 3,
      "api": "csp_Bili",
      "searchable":0,
      "quickSearch": 0,
      "filterable": 1,
      "jar": "./spider.jar",
      "ext":"./json/学堂教育.json"},
   {
      "key": "少儿",
      "name": "LEO少儿课堂",
      "type": 3,
      "api": "csp_Bili",
      "searchable": 0,
      "quickSearch": 0,
      "filterable": 1,
      "jar": "./spider.jar",
      "ext":"./json/少儿合集.json"},
    {
      "key": "小学课堂",
      "name": "LEO小学课堂",
      "type": 3,
      "api": "csp_Bili",
      "searchable": 0,
      "quickSearch": 0,
      "filterable": 1,
      "jar": "./spider.jar",
      "ext":"./json/小学课堂.json"},
    { 
      "key": "初中课堂",
      "name": "LEO初中课堂",
      "type": 3,
      "api": "csp_Bili",
      "searchable": 0,
      "quickSearch": 0,
      "filterable": 1,
      "jar": "./spider.jar",
      "ext":"./json/初中课堂.json"},
    {
      "key": "高中课堂",
      "name": "LEO高中课堂",
      "type": 3,
      "api": "csp_Bili",
      "searchable": 0,
      "quickSearch": 0,
      "filterable": 1,
      "jar": "./spider.jar",
      "ext":"./json/高中课堂.json"},
    {
      "key":"LEO",
      "name":"关注雷欧API",
      "type":3,
      "api":"",
      "searchable":1,
      "quickSearch":1,
      "filterable":1},
    {
      "key":"LEI",
      "name":"请勿相信视频中广告",
      "type":3,
      "api":"",
      "searchable":1,
      "quickSearch":1,
      "filterable":1}
 ],
  "lives":[
			{
				"name": "live.ipv6",
				"type": 0,
				"url": "https://fanmingming.com/txt?url=https://live.fanmingming.com/tv/m3u/ipv6.m3u",
				"playerType": 1,
				"ua": "okhttp/3.15",
				"epg": "http://epg.112114.xyz/?ch={name}&date={date}",
				"logo": "https://epg.112114.xyz/logo/{name}.png"
			},
			{
				"name": "live.ipv6.m3u",
				"type": 0,
				"url": "https://live.fanmingming.com/tv/m3u/ipv6.m3u",
				"playerType": 1,
				"ua": "okhttp/3.15",
				"epg": "http://epg.112114.xyz/?ch={name}&date={date}",
				"logo": "https://epg.112114.xyz/logo/{name}.png"
			},
			{
				"name": "live.ipv6.local",
				"type": 0,
				"url": "./lib/live.ipv6.txt",
				"playerType": 1,
				"ua": "okhttp/3.15",
				"epg": "http://epg.112114.xyz/?ch={name}&date={date}",
				"logo": "https://epg.112114.xyz/logo/{name}.png"
			},
			{
				"name": "live.fan",
				"type": 0,
				"url": "https://mirror.ghproxy.com/raw.githubusercontent.com/dxawi/0/main/tvlive.txt",
				"playerType": 1,
				"ua": "okhttp/3.15",
				"epg": "http://epg.112114.xyz/?ch={name}&date={date}",
				"logo": "https://epg.112114.xyz/logo/{name}.png"
			},
			{
				"name": "直播",
				"type": 0,
				"playerType": 1,
				"url": "https://agit.ai/Yoursmile7/TVBox/raw/branch/master/live.txt",
				"epg": "https://epg.112114.xyz/?ch={name}&date={date}",
				"logo": "https://epg.112114.xyz/logo/{name}.png"
			},
			{
				"name": "TXT",
				"type": 0,
				"playerType": 1,
				"url": "http://home.jundie.top:81/Cat/tv/live.txt",
				"epg": "http://epg.112114.xyz/?ch={name}&date={date}",
				"logo": "https://epg.112114.xyz/logo/{name}.png",
				"ua": "Mozilla/5.0 (Windows NT 10.0; Win64; x64) AppleWebKit/537.36 (KHTML, like Gecko) Chrome/108.0.0.0 Safari/537.36"
			},
			{
				"name": "Json",
				"type": 1,
				"playerType": 1,
				"url": "https://mirror.ghproxy.com/https://raw.githubusercontent.com/FongMi/CatVodSpider/main/json/live.json",
				"epg": "http://epg.112114.xyz/?ch={name}&date={date}",
				"logo": "https://epg.112114.xyz/logo/{name}.png",
				"ua": "Mozilla/5.0 (Windows NT 10.0; Win64; x64) AppleWebKit/537.36 (KHTML, like Gecko) Chrome/108.0.0.0 Safari/537.36"
			},
			{
				"name": "live.feimao",
				"type": 0,
				"playerType": 1,
				"url": "http://我不是.肥猫.live/TV/tvzb.txt",
				"ua": "okhttp/3.12.13",
				"epg": "http://epg.112114.xyz/?ch={name}&date={date}",
				"logo": "https://epg.112114.xyz/logo/{name}.png"
			},
			{
				"group":"redirect",
				"channels":[
					{
						"name":"redirect",
						"urls":[
							"proxy://do=live&type=live&proxy=&url="
						]
					}
				]
			}
		],
		"doh": [
			{
				"name": "Google",
				"url": "https://dns.google/dns-query",
				"ips": [
					"8.8.4.4",
					"8.8.8.8"
				]
			},
			{
				"name": "Cloudflare",
				"url": "https://cloudflare-dns.com/dns-query",
				"ips": [
					"1.1.1.1",
					"1.0.0.1",
					"2606:4700:4700::1111",
					"2606:4700:4700::1001"
				]
			},
			{
				"name": "AdGuard",
				"url": "https://dns.adguard.com/dns-query",
				"ips": [
					"94.140.14.140",
					"94.140.14.141"
				]
			},
			{
				"name": "DNSWatch",
				"url": "https://resolver2.dns.watch/dns-query",
				"ips": [
					"84.200.69.80",
					"84.200.70.40"
				]
			},
			{
				"name": "Quad9",
				"url": "https://dns.quad9.net/dns-quer",
				"ips": [
					"9.9.9.9",
					"149.112.112.112"
				]
			}
		],
		"rules":[
			{
				"name": "proxy",
				"hosts": [
					"raw.githubusercontent.com",
					"googlevideo.com",
					"cdn.v82u1l.com",
					"cdn.iz8qkg.com",
					"cdn.kin6c1.com",
					"c.biggggg.com",
					"c.olddddd.com",
					"haiwaikan.com",
					"www.histar.tv",
					"youtube.com",
					"uhibo.com",
					".*boku.*",
					".*nivod.*",
					"*.t4tv.hz.cz",
					".*ulivetv.*"
				]
			},
			{
				"name": "海外看",
				"hosts": [
					"haiwaikan"
				],
				"regex": [
					"8.1748",
					"10.0099",
					"10.3333",
					"16.0599"
				]
			},
			{
				"name": "暴風",
				"hosts": [
					"bfzy"
				],
				"regex": [
					"#EXT-X-DISCONTINUITY\\r*\\n*#EXTINF:3,[\\s\\S]*?#EXT-X-DISCONTINUITY"
				]
			},
			{
				"name": "星星",
				"hosts": [
					"aws.ulivetv.net"
				],
				"regex": [
					"#EXT-X-DISCONTINUITY\\r*\\n*#EXTINF:8,[\\s\\S]*?#EXT-X-DISCONTINUITY"
				]
			},
			{
				"name": "量子",
				"hosts": [
					"vip.lz",
					"hd.lz",
					"v.cdnlz"
				],
				"regex": [
					"18.5333"
				]
			},
			{
				"name": "非凡",
				"hosts": [
					"vip.ffzy",
					"hd.ffzy"
				],
				"regex": [
					"25.0666",
					"25.08"
				]
			},
			{"host":"www.djuu.com","rule":["mp4.djuu.com","m4a"]},{"host":"www.sharenice.net","rule":["huoshan.com","/item/video/"],"filter":[]},
			{"host":"www.sharenice.net","rule":["sovv.qianpailive.com","vid="],"filter":[]},
			{"host":"www.sharenice.net","rule":["douyin.com","/play/"]},
			{"host":"m.ysxs8.vip","rule":["ysting.ysxs8.vip:81","xmcdn.com"],"filter":[]},
			{"host":"hdmoli.com","rule":[".m3u8"]},{"host":"https://api.live.bilibili.com","rule":["bilivideo.com","/index.m3u8"],"filter":["data.bilibili.com/log/web","i0.hdslb.com/bfs/live/"]},
			{"host":"www.agemys.cc","rule":["cdn-tos","obj/tos-cn"]},
			{"host":"www.fun4k.com","rule":["https://hd.ijycnd.com/play","index.m3u8"]},
			{"host":"zjmiao.com","rule":["play.videomiao.vip/API.php","time=","key=","path="]},
			{
				"name": "火山嗅探",
				"hosts": [
					"huoshan.com"
				],
				"regex": [
					"item_id="
				]
			},
			{
				"name": "抖音嗅探",
				"hosts": [
					"douyin.com"
				],
				"regex": [
					"is_play_url="
				]
			},
			{
				"name": "農民嗅探",
				"hosts": [
					"toutiaovod.com"
				],
				"regex": [
					"video/tos/cn"
				]
			},
			{
				"name": "夜市",
				"hosts": [
					"yeslivetv.com"
				],
				"script": [
					"document.getElementsByClassName('vjs-big-play-button')[0].click()"
				]
			},
			{
				"name": "毛驢",
				"hosts": [
					"www.maolvys.com"
				],
				"script": [
					"document.getElementsByClassName('swal-button swal-button--confirm')[0].click()"
				]
			},
			{
				"name": "磁力广告",
				"hosts": [
					"magnet"
				],
				"regex": [
					"更多",
					"社 區",
					"x u u",
					"最 新",
					"直 播",
					"更 新",
					"社 区",
					"有 趣",
					"英皇体育",
					"全中文AV在线",
					"澳门皇冠赌场",
					"哥哥快来",
					"美女荷官",
					"裸聊",
					"新片首发",
					"UUE29"
				]
			}
		],
		"parses":[
			{"name":"777","type":0,"url":"https://jx.777jiexi.com/player/?url="},
			{"name":"杰森","type":0,"url":"https://jx.jsonplayer.com/player/?url="}, 
			{"name":"战狼","type":0,"url":"https://jx.zhanlangbu.com/?url="},
			{"name":"ok","type":0,"url":"https://okjx.cc/?url="},
			{"name":"bozrc","type":0,"url":"https://jx.bozrc.com:4433/player/?url=","ext":{"flag":["qq","腾讯","qiyi","爱奇艺","奇艺","youku","优酷","mgtv","芒果","letv","leshi","LS","pptv","PPTV","sohu","bilibili","哔哩哔哩","哔哩"],"header":{"User-Agent":""}}},
			{"name":"不累","type":0,"url":"https://blbfq.f3322.net/player/analysis.php?v=","ext":{"flag":["qiyi","qq","letv","sohu","youku","mgtv","bilibili","wasu","xigua","1905"]}},
			{"name":"cod","type":0,"url":"https://ksksl.codjx.com/?url="},
			{"name":"byg解析","type":0,"url":"https://byg.ziqj5.shop/?url="},
			{"name":"xmflv","type":0,"url":"https://jx.xmflv.com/?url="},
			{"name":"365","type":0,"url":"https://chaxun.truechat365.com/?url=","ext":{"flag":["qq","腾讯","qiyi","iqiyi","爱奇艺","奇艺","youku","优酷","mgtv","芒果","letv","乐视","pptv","PPTV","sohu","bilibili","哔哩哔哩","哔哩"]}},
			{"name":"26db","type":0,"url":"http://vip.26db.cn/g/?url="},
			{"name":"看看","type":0,"url":"https://jx.m3u8.pw/?url="},
			{"name":"FreeOK","type":0,"url":"https://play.86516.tk/OKPlayer/?url="},
			{"name":"free","type":0,"url":"https://h5.freejson.xyz/player/?url="}
		],
		"flags":["youku","qq","iqiyi","qiyi","letv","sohu","tudou","pptv","mgtv","wasu"],
		"disabled_wallpaper":"http://www.kf666888.cn/api/tvbox/img"
}
